…
cps_state <- cps_state_in %>%
  as_tibble() %>%
  mutate(across(.fns = as.numeric))

# Confirm this doesn't include territories
cps_state %>%
  count(state)
```

    ## # A tibble: 51 x 2
    ##    state     n
    ##    <dbl> <int>
    ##  1     1  2406
    ##  2     2  1289
    ##  3     4  1969
    ##  4     5  1988
    ##  5     6  9574
    ##  6     8  1365
    ##  7     9  1157
    ##  8    10  1285
    ##  9    11  1622
    ## 10    12  5055
    ## # ... with 41 more rows
…
