Chapter 1 Introduction | Tidy Survey Book
…
library(tidyverse)
library(survey)
library(srvyr)
library(osfr)
source("helper-fun/helper-functions.R")

recs_in <- read_osf("recs_2015.rds")
anes_in <- read_osf("anes_2020.rds")

RECS is a study that provides energy consumption and expenditures data in American households. The Energy Information Administration funds RECS, and the data is collected through interviews with energy suppliers. These interviews happen in person, over the phone, and on the web. It has been fielded 14 times between 1950 and 2020. The survey includes questions about appliances, electronics, heating, air conditioning (A/C), temperatures, water heating, lighting, energy bills, respondent demographics, and energy assistance. Below is an overview of the recs_in data:

recs_in

## # A tibble: 5,686 × 141
##    DOEID REGIONC Region    Division MSAStatus Urbanicity HousingUnitType
##    <dbl>   <dbl> <fct>     <fct>    <fct>     <fct>      <fct>          
##  1 10001       4 West      Pacific  Metropol… Urban Area Single-family …
##  2 10002       3 South     West So… None      Rural      Single-family …
##  3 10003       3 South     East So… Metropol… Urban Area Single-family …
##  4 10004       2 Midwest   West No… Micropol… Urban Clu… Single-family …
##  5 10005       1 Northeast Middle … Metropol… Urban Area Single-family …
##  6 10006       1 Northeast New Eng… None      Urban Clu… Apartment: 5 o…
##  7 10007       3 South     South A… Metropol… Urban Area Apartment: 2-4…
##  8 10008       2 Midwest   East No… Metropol… Rural      Single-family …
##  9 10009       1 Northeast Middle … Metropol… Urban Area Single-family …
## 10 10010       3 South     West So… Metropol… Urban Area Single-family …
## # ℹ 5,676 more rows
## # ℹ 134 more variables: YearMade <ord>, SpaceHeatingUsed <lgl>,
## #   HeatingBehavior <fct>, WinterTempDay <dbl>, WinterTempAway <dbl>,
## #   WinterTempNight <dbl>, ACUsed <lgl>, ACBehavior <fct>,
## #   SummerTempDay <dbl>, SummerTempAway <dbl>, SummerTempNight <dbl>,
## #   TOTCSQFT <dbl>, TOTHSQFT <dbl>, TOTSQFT_EN <dbl>, TOTUCSQFT <dbl>,
## #   TOTUSQFT <dbl>, NWEIGHT <dbl>, BRRWT1 <dbl>, BRRWT2 <dbl>, …

From this output, we can see that there are 5,686 rows and 141 variables. We can see that there are variables containing an ID (DOEID), regional information (e.g., Region, MSAStatus), along with information about the house, including the type of house (HousingUnitType) and when the house was built (YearMade). Additionally, there is a long list of weighting variables that we will use in the analysis (e.g., NWEIGHT, BRRWT1). We will discuss using these weighting variables in Chapter 3.

The ANES is a series study that has collected data from election surveys since 1948. These surveys contain data on public opinion and voting behavior in U.S. presidential elections. The 2020 survey (the data we will be using) was fielded to individuals over the web, through live video interviewing, or over with computer-assisted telephone interviewing (CATI). The survey includes questions on party affiliation, voting choice, and level of trust with the government. Here is an overview of the anes_in data. First, we show the variables starting with “V” followed by a number; these are the original variables. Then, we show you the remaining variables that we created based on the original data:

anes_in %>% select(matches("^V\\d"))

## # A tibble: 7,453 × 22
##    V200010b V200010d V200010c    V200002 V201006 V201102 V201101 V201103
##       <dbl>    <dbl>    <dbl> <hvn_lbll> <hvn_l> <hvn_l> <hvn_l> <hvn_l>
##  1    1.01         9        2          3       2       1      -1       2
##  2    1.16        26        2          3       3       1      -1       5
##  3    0.769       41        1          3       2       1      -1       1
##  4    0.521       29        2          3       3       1      -1       1
##  5    0.966       23        1          3       2       1      -1       2
##  6    0.235       37        2          3       1       2      -1      -1
##  7    0.441        7        1          3       2       1      -1       5
##  8    0.769       37        2          3       3       2      -1      -1
##  9    1.42        32        2          3       2      -1       1       1
## 10    1.84        41        2          3       2      -1       1       1
## # ℹ 7,443 more rows
## # ℹ 14 more variables: V201025x <hvn_lbll>, V201231x <hvn_lbll>,
## #   V201233 <hvn_lbll>, V201237 <hvn_lbll>, V201507x <hvn_lbll>,
## #   V201510 <hvn_lbll>, V201549x <hvn_lbll>, V201600 <hvn_lbll>,
## #   V201617x <hvn_lbll>, V202066 <hvn_lbll>, V202109x <hvn_lbll>,
## #   V202072 <hvn_lbll>, V202073 <hvn_lbll>, V202110x <hvn_lbll>

anes_in %>% select(-matches("^V\\d"))

## # A tibble: 7,453 × 20
##    InterviewMode Weight Stratum VarUnit   Age AgeGroup    Gender RaceEth
##    <fct>          <dbl> <fct>   <fct>   <dbl> <fct>       <fct>  <fct>  
##  1 Web            1.01  9       2          46 40-49       Male   Hispan…
##  2 Web            1.16  26      2          37 30-39       Female Asian,…
##  3 Web            0.769 41      1          40 40-49       Female White  
##  4 Web            0.521 29      2          41 40-49       Male   Asian,…
##  5 Web            0.966 23      1          72 70 or older Male   AI/AN  
##  6 Web            0.235 37      2          71 70 or older Female White  
##  7 Web            0.441 7       1          37 30-39       Female White  
##  8 Web            0.769 37      2          45 40-49       Female White  
##  9 Web            1.42  32      2          70 70 or older Female White  
## 10 Web            1.84  41      2          43 40-49       Male   Hispan…
## # ℹ 7,443 more rows
## # ℹ 12 more variables: PartyID <fct>, Education <fct>, Income <fct>,
## #   Income7 <fct>, CampaignInterest <fct>, TrustGovernment <fct>,
## #   TrustPeople <fct>, VotedPres2016 <fct>,
## #   VotedPres2016_selection <fct>, VotedPres2020 <fct>,
## #   VotedPres2020_selection <fct>, EarlyVote2020 <fct>
…
