Chapter 4 Understanding survey data documentation | Tidy Survey Book
…
cps_state <- cps_state_in %>%
  as_tibble() %>%
  mutate(across(.cols = everything(),
                .fns = as.numeric))

Once we’ve pulled the data, we want to ensure that the data only includes the 50 U.S. states and D.C. to match the desigred population.

cps_state %>%
  count(state)

## # A tibble: 51 × 2
##    state     n
##    <dbl> <int>
##  1     1  2406
##  2     2  1289
##  3     4  1969
##  4     5  1988
##  5     6  9574
##  6     8  1365
##  7     9  1157
##  8    10  1285
##  9    11  1622
## 10    12  5055
## # ℹ 41 more rows
…
