Chapter 5 Descriptive analyses in srvyr | Tidy Survey Book
…
In the example above, this results in a very wide table. We may instead want a row for each fuel type. Using the pivot_longer(), separate_wider_delim(), and pivot_wider() functions from {tidyr} can help us get there. We will first make the data much longer. First we make the table longer:

consumption_ests_long <- consumption_ests %>%
  pivot_longer(everything())

consumption_ests_long

## # A tibble: 24 × 2
##    name            value
##    <chr>           <dbl>
##  1 BTUEL_tot    4.32e+12
##  2 BTUEL_tot_cv 1.08e- 2
##  3 BTUEL_mn     3.66e+ 4
##  4 BTUEL_mn_cv  1.08e- 2
##  5 BTUNG_tot    3.96e+12
##  6 BTUNG_tot_cv 2.55e- 2
##  7 BTUNG_mn     3.35e+ 4
##  8 BTUNG_mn_cv  2.55e- 2
##  9 BTULP_tot    3.61e+11
## 10 BTULP_tot_cv 1.25e- 1
## # ℹ 14 more rows

Then we separate out the name column to separate columns for naming later:

consumption_ests_sep <- consumption_ests_long %>%
  separate_wider_delim(name, 
                       names=c("FuelType", "EstType", "EstType2"), 
                       delim="_", 
                       too_few = "align_start")

consumption_ests_sep

## # A tibble: 24 × 4
##    FuelType EstType EstType2    value
##    <chr>    <chr>   <chr>       <dbl>
##  1 BTUEL    tot     <NA>     4.32e+12
##  2 BTUEL    tot     cv       1.08e- 2
##  3 BTUEL    mn      <NA>     3.66e+ 4
##  4 BTUEL    mn      cv       1.08e- 2
##  5 BTUNG    tot     <NA>     3.96e+12
##  6 BTUNG    tot     cv       2.55e- 2
##  7 BTUNG    mn      <NA>     3.35e+ 4
##  8 BTUNG    mn      cv       2.55e- 2
##  9 BTULP    tot     <NA>     3.61e+11
## 10 BTULP    tot     cv       1.25e- 1
## # ℹ 14 more rows
…
