Chapter 5 Specifying sample designs and replicate weights in srvyr | Tidy Survey Book
…
data(api)

apisrs_slim <- 
  apisrs %>%
  as_tibble() %>%
  arrange(dnum, snum) %>%
  select(cds, dnum, snum, dname, sname, fpc, pw)

apisrs_slim

## # A tibble: 200 × 7
##    cds             dnum  snum dname                   sname    fpc    pw
##    <chr>          <int> <dbl> <chr>                   <chr>  <dbl> <dbl>
##  1 19642126061220     1  1121 ABC Unified             Haske…  6194  31.0
##  2 19642126066716     1  1124 ABC Unified             Stowe…  6194  31.0
##  3 36675876035174     5  3895 Adelanto Elementary     Adela…  6194  31.0
##  4 33669776031512    19  3347 Alvord Unified          Arlan…  6194  31.0
##  5 33669776031595    19  3352 Alvord Unified          Wells…  6194  31.0
##  6 31667876031033    39  3271 Auburn Union Elementary Cain …  6194  31.0
##  7 19642876011407    42  1169 Baldwin Park Unified    Deanz…  6194  31.0
##  8 19642876011464    42  1175 Baldwin Park Unified    Heath…  6194  31.0
##  9 19642956011589    48  1187 Bassett Unified         Erwin…  6194  31.0
## 10 41688586043392    49  4948 Bayshore Elementary     Baysh…  6194  31.0
## # ℹ 190 more rows
…
Example

The survey package includes a two-stage cluster sample data, apiclus2, in which school districts were sampled and then a random sample of 5 schools was selected within each district. For districts with fewer than 5 schools, all schools were sampled. School districts are identified by dnum and schools are identified by snum. The variable fpc1 indicates how many districts there are in California (N) and fpc2 indicates how many schools were in a given district with at least 100 students (M). The data has a row for each school. In the data printed below, there are 757 school districts as indicated by fpc1 and there are 9 schools in district 731, one school in district 742, 2 schools in district 768, and so on as indicated by fpc2. For illustration purposes, the object apiclus2_slim has been created from apiclus2, which subsets the data to only the necessary columns and sorts data.

apiclus2_slim <- 
  apiclus2 %>%
  as_tibble() %>%
  arrange(desc(dnum), snum) %>%
  select(cds, dnum, snum, fpc1, fpc2, pw)

apiclus2_slim

## # A tibble: 126 × 6
##    cds             dnum  snum  fpc1      fpc2    pw
##    <chr>          <int> <dbl> <dbl> <int[1d]> <dbl>
##  1 47704826050942   795  5552   757         1  18.9
##  2 07618126005169   781   530   757         6  22.7
##  3 07618126005177   781   531   757         6  22.7
##  4 07618126005185   781   532   757         6  22.7
##  5 07618126005193   781   533   757         6  22.7
##  6 07618126005243   781   535   757         6  22.7
##  7 19650786023337   768  2371   757         2  18.9
##  8 19650786023345   768  2372   757         2  18.9
##  9 54722076054423   742  5898   757         1  18.9
## 10 50712906053086   731  5781   757         9  34.1
## # ℹ 116 more rows
…
## Getting data from the 2016-2020 5-year ACS Public Use Microdata Sample

## Warning: • You have not set a Census API key. Users without a key are limited to 500
## queries per day and may experience performance limitations.
## ℹ For best results, get a Census API key at
## http://api.census.gov/data/key_signup.html and then supply the key to the
## `census_api_key()` function to use it throughout your tidycensus session.
## This warning is displayed once per session.

pums_in

## # A tibble: 4,853 × 90
##    SERIALNO  SPORDER    NP  BDSP  HINCP PUMA  ST    TYPEHUGQ  WGTP PWGTP
##    <chr>       <dbl> <dbl> <dbl>  <dbl> <chr> <chr> <chr>    <dbl> <dbl>
##  1 20170009…       1     1     3   7400 01301 37    1           19    19
##  2 20170009…       1     3     4  56700 01301 37    1           14    14
##  3 20170009…       1     1     2  61000 01302 37    1           14    15
##  4 20170009…       1     4     3 143000 01302 37    1           16    16
##  5 20170009…       1     5     4  87700 01301 37    1           14    13
##  6 20170009…       1     4     2  20500 01302 37    1           11    11
##  7 20170009…       1     1     1  65000 01301 37    1           33    33
##  8 20170009…       1     3     4 555000 01301 37    1           16    15
##  9 20170009…       1     4     3 127000 01301 37    1           11    11
## 10 20170009…       1     3     3 104260 01302 37    1           20    21
## # ℹ 4,843 more rows
## # ℹ 80 more variables: WGTP1 <dbl>, WGTP2 <dbl>, WGTP3 <dbl>,
## #   WGTP4 <dbl>, WGTP5 <dbl>, WGTP6 <dbl>, WGTP7 <dbl>, WGTP8 <dbl>,
## #   WGTP9 <dbl>, WGTP10 <dbl>, WGTP11 <dbl>, WGTP12 <dbl>,
## #   WGTP13 <dbl>, WGTP14 <dbl>, WGTP15 <dbl>, WGTP16 <dbl>,
## #   WGTP17 <dbl>, WGTP18 <dbl>, WGTP19 <dbl>, WGTP20 <dbl>,
## #   WGTP21 <dbl>, WGTP22 <dbl>, WGTP23 <dbl>, WGTP24 <dbl>, …
…
If a dataset had WT0 for the main weight, 20 bootstrap weights indicated WT1, WT2, …, WT20, and \(\alpha=.02\), use the following syntax:

des_bs <- dat %>%
  as_survey_rep(weights = WT0, repweights= num_range("WT", 1:20),
                type="bootstrap", mse=TRUE, scale=.02)

Note that the scale is usually provided in documentation and is a constant, so is not provided as a variable in the tibble.

Example

Returning to the api example, bootstrap weights were constructed for a one cluster design. 50 replicate weights were created on a dataset apiclus1_slim which has some familiar variables including cds, dnum, fpc, and pw but now additionally includes bootstrap weights pw1, …, pw50. The scale \((\alpha)\) is \(15/(14*49)=0.02186589\)

apiclus1_slim

## # A tibble: 183 × 54
##    cds        dnum   fpc    pw   pw1   pw2   pw3   pw4   pw5   pw6   pw7
##    <chr>     <int> <dbl> <dbl> <dbl> <dbl> <dbl> <dbl> <dbl> <dbl> <dbl>
##  1 43693776…    61   757  33.8  33.8     0     0  33.8     0  33.8     0
##  2 43693776…    61   757  33.8  33.8     0     0  33.8     0  33.8     0
##  3 43693776…    61   757  33.8  33.8     0     0  33.8     0  33.8     0
##  4 43693776…    61   757  33.8  33.8     0     0  33.8     0  33.8     0
##  5 43693776…    61   757  33.8  33.8     0     0  33.8     0  33.8     0
##  6 43693776…    61   757  33.8  33.8     0     0  33.8     0  33.8     0
##  7 43693776…    61   757  33.8  33.8     0     0  33.8     0  33.8     0
##  8 43693776…    61   757  33.8  33.8     0     0  33.8     0  33.8     0
##  9 43693776…    61   757  33.8  33.8     0     0  33.8     0  33.8     0
## 10 43693776…    61   757  33.8  33.8     0     0  33.8     0  33.8     0
## # ℹ 173 more rows
## # ℹ 43 more variables: pw8 <dbl>, pw9 <dbl>, pw10 <dbl>, pw11 <dbl>,
## #   pw12 <dbl>, pw13 <dbl>, pw14 <dbl>, pw15 <dbl>, pw16 <dbl>,
## #   pw17 <dbl>, pw18 <dbl>, pw19 <dbl>, pw20 <dbl>, pw21 <dbl>,
## #   pw22 <dbl>, pw23 <dbl>, pw24 <dbl>, pw25 <dbl>, pw26 <dbl>,
## #   pw27 <dbl>, pw28 <dbl>, pw29 <dbl>, pw30 <dbl>, pw31 <dbl>,
## #   pw32 <dbl>, pw33 <dbl>, pw34 <dbl>, pw35 <dbl>, pw36 <dbl>, …
…
