Chapter 7 Modeling | Tidy Survey Book
…
To examine the predictions, residuals and more from the model, the function augment() from {broom} can be used. The augment() function will return a tibble with the independent and dependent variables and other fit statistics. The augment() function has not been specifically written for objects of class svyglm, and as such, a warning will be displayed indicating this at this time. As it was not written exactly for this class of objects, a little tweaking needs to be done after using augment to get the predicted (.fitted) and standard error (.se.fit) values. To obtain the standard error of the fitted values we need to use the attr() function on the .fitted values created by augment().

fitstats <-
  augment(m_electric_multi) %>%
  mutate(.se.fit = sqrt(attr(.fitted, "var")), 
         .fitted = as.numeric(.fitted)) 

## Warning: The `augment()` method for objects of class `svrepglm` is not maintained by the broom team, and is only supported through the `glm` tidier method. Please be cautious in interpreting and reporting broom output.
## 
## This warning is displayed once per session.

fitstats

## # A tibble: 5,686 × 13
##    DOLLAREL Region    Urbanicity   TOTSQFT_EN ACUsed `(weights)` .fitted
##       <dbl> <fct>     <fct>             <dbl> <lgl>        <dbl>   <dbl>
##  1     967. West      Urban Area         1808 TRUE         0.581   1209.
##  2    1366  South     Rural               759 TRUE         0.693   1577.
##  3    2428. South     Urban Area         2288 TRUE         1.12    1710.
##  4    1313. Midwest   Urban Clust…       2573 TRUE         0.585   1261.
##  5     581. Northeast Urban Area         1024 TRUE         0.804   1157.
##  6     494  Northeast Urban Clust…        623 TRUE         1.25     893.
##  7     372. South     Urban Area          832 TRUE         2.21    1261.
##  8    1737. Midwest   Rural              2682 TRUE         0.735   1654.
##  9    1532. Northeast Urban Area         1900 TRUE         0.675   1375.
## 10    1974. South     Urban Area         1230 TRUE         2.09    1383.
## # ℹ 5,676 more rows
## # ℹ 6 more variables: .resid <dbl>, .hat <dbl>, .sigma <dbl>,
## #   .cooksd <dbl>, .std.resid <dbl>, .se.fit <dbl>
…
logistic_trust_vote %>%
  augment(type.predict = "response") %>%
  mutate(.se.fit = sqrt(attr(.fitted, "var")), # extract the variance of the fitted value 
         .fitted = as.numeric(.fitted)) %>%
  select(TrustGovernmentUsually,
         VotedPres2020_selection,
         .fitted,
         .se.fit) 

## Warning: The `augment()` method for objects of class `svyglm` is not maintained by the broom team, and is only supported through the `glm` tidier method. Please be cautious in interpreting and reporting broom output.
## 
## This warning is displayed once per session.

## # A tibble: 5,860 × 4
##    TrustGovernmentUsually VotedPres2020_selection .fitted .se.fit
##    <lgl>                  <fct>                     <dbl>   <dbl>
##  1 FALSE                  Other                    0.0614 0.0266 
##  2 FALSE                  Biden                    0.124  0.00801
##  3 FALSE                  Biden                    0.124  0.00801
##  4 FALSE                  Trump                    0.173  0.00959
##  5 FALSE                  Biden                    0.124  0.00801
##  6 FALSE                  Trump                    0.173  0.00959
##  7 FALSE                  Biden                    0.124  0.00801
##  8 TRUE                   Biden                    0.124  0.00801
##  9 FALSE                  Biden                    0.124  0.00801
## 10 FALSE                  Trump                    0.173  0.00959
## # ℹ 5,850 more rows
…
FIGURE 7.5: Residual plot of electric cost model with covariates TOTSQFT_EN, CDD65, and HDD65

Early voting expanded in 202028. Build a logistic model predicting early voting in 2020 (EarlyVote2020) using age (Age), education (Education), and party identification (PartyID). Include two-way interactions.

earlyvote_mod <- anes_des %>%
  filter(!is.na(EarlyVote2020)) %>%
  svyglm(
    design = .,
    formula = EarlyVote2020 ~ (Age + Education + PartyID) ^ 2 ,
    family = quasibinomial
  )

tidy(earlyvote_mod) %>% arrange(p.value)

## # A tibble: 46 × 5
##    term                             estimate std.error statistic p.value
##    <chr>                               <dbl>     <dbl>     <dbl>   <dbl>
##  1 Age:PartyIDIndependent            -0.0585    0.0163     -3.58  0.0116
##  2 PartyIDIndependent                 4.99      1.62        3.09  0.0214
##  3 Age:PartyIDNot very strong repu…  -0.0494    0.0197     -2.51  0.0460
##  4 PartyIDNot very strong republic…   4.03      1.64        2.46  0.0488
##  5 (Intercept)                        1.57      0.870       1.80  0.121 
##  6 EducationGraduate                  1.47      0.973       1.51  0.183 
##  7 EducationHigh school:PartyIDStr…  -1.33      1.00       -1.32  0.235 
##  8 PartyIDStrong republican           1.63      1.28        1.27  0.253 
##  9 EducationGraduate:PartyIDStrong…  -1.21      0.998      -1.21  0.272 
## 10 EducationPost HS:PartyIDIndepen…  -1.50      1.35       -1.11  0.311 
## # ℹ 36 more rows
…
