Chapter 10 Specifying sample designs and replicate weights in {srvyr} | Exploring Complex Survey Data Analysis in R
…
where wtvar is the variable for the weight on the data. Again, the FPC can be omitted if it is unnecessary because the frame is large.

Example

The {survey} package in R provides some example datasets that we will use throughout this chapter. The documentation provides detailed information about the variables. One of the example datasets we will use is from the Academic Performance Index (API). The API was a program administered by the California Department of Education, and the {survey} package includes a population file (sample frame) of all schools with at least 100 students and several different samples pulled from that data using different sampling methods. For this first example, we will use the apisrs dataset, which contains an SRS of 200 schools. For printing purposes, we create a new dataset called apisrs_slim, which sorts the data by the school district and school ID and subsets the data to only a few columns. The SRS sample data is illustrated below:

apisrs_slim <- apisrs %>%
  as_tibble() %>%
  arrange(dnum, snum) %>%
  select(cds, dnum, snum, dname, sname, fpc, pw)

apisrs_slim

## # A tibble: 200 × 7
##    cds             dnum  snum dname                   sname    fpc    pw
##    <chr>          <int> <dbl> <chr>                   <chr>  <dbl> <dbl>
##  1 19642126061220     1  1121 ABC Unified             Haske…  6194  31.0
##  2 19642126066716     1  1124 ABC Unified             Stowe…  6194  31.0
##  3 36675876035174     5  3895 Adelanto Elementary     Adela…  6194  31.0
##  4 33669776031512    19  3347 Alvord Unified          Arlan…  6194  31.0
##  5 33669776031595    19  3352 Alvord Unified          Wells…  6194  31.0
##  6 31667876031033    39  3271 Auburn Union Elementary Cain …  6194  31.0
##  7 19642876011407    42  1169 Baldwin Park Unified    Deanz…  6194  31.0
##  8 19642876011464    42  1175 Baldwin Park Unified    Heath…  6194  31.0
##  9 19642956011589    48  1187 Bassett Unified         Erwin…  6194  31.0
## 10 41688586043392    49  4948 Bayshore Elementary     Baysh…  6194  31.0
## # ℹ 190 more rows
…
Example

The survey package includes a two-stage cluster sample data, apiclus2, in which school districts were sampled, and then a random sample of five schools was selected within each district. For districts with fewer than five schools, all schools were sampled. School districts are identified by dnum, and schools are identified by snum. The variable fpc1 indicates how many districts there are in California (A), and fpc2 indicates how many schools were in a given district with at least 100 students (B). The data has a row for each school. In the data printed below, there are 757 school districts, as indicated by fpc1, and there are nine schools in District 731, one school in District 742, two schools in District 768, and so on as indicated by fpc2. For illustration purposes, the object apiclus2_slim has been created from apiclus2, which subsets the data to only the necessary columns and sorts data.

apiclus2_slim <- apiclus2 %>%
  as_tibble() %>%
  arrange(desc(dnum), snum) %>%
  select(cds, dnum, snum, fpc1, fpc2, pw)

apiclus2_slim

## # A tibble: 126 × 6
##    cds             dnum  snum  fpc1      fpc2    pw
##    <chr>          <int> <dbl> <dbl> <int[1d]> <dbl>
##  1 47704826050942   795  5552   757         1  18.9
##  2 07618126005169   781   530   757         6  22.7
##  3 07618126005177   781   531   757         6  22.7
##  4 07618126005185   781   532   757         6  22.7
##  5 07618126005193   781   533   757         6  22.7
##  6 07618126005243   781   535   757         6  22.7
##  7 19650786023337   768  2371   757         2  18.9
##  8 19650786023345   768  2372   757         2  18.9
##  9 54722076054423   742  5898   757         1  18.9
## 10 50712906053086   731  5781   757         9  34.1
## # ℹ 116 more rows
…
bwmata <- apibw$repweights$weights[apibw$repweights$index, ] * apiclus1_slim$pw

apiclus1_slim <- bwmata %>%
  as.data.frame() %>%
  set_names(str_c("pw", 1:50)) %>%
  cbind(apiclus1_slim) %>%
  as_tibble() %>%
  select(cds, dnum, fpc, pw, everything())

apiclus1_slim

## # A tibble: 183 × 54
##    cds        dnum   fpc    pw   pw1   pw2   pw3   pw4   pw5   pw6   pw7
##    <chr>     <int> <dbl> <dbl> <dbl> <dbl> <dbl> <dbl> <dbl> <dbl> <dbl>
##  1 43693776…    61   757  33.8  33.8     0     0  33.8     0  33.8     0
##  2 43693776…    61   757  33.8  33.8     0     0  33.8     0  33.8     0
##  3 43693776…    61   757  33.8  33.8     0     0  33.8     0  33.8     0
##  4 43693776…    61   757  33.8  33.8     0     0  33.8     0  33.8     0
##  5 43693776…    61   757  33.8  33.8     0     0  33.8     0  33.8     0
##  6 43693776…    61   757  33.8  33.8     0     0  33.8     0  33.8     0
##  7 43693776…    61   757  33.8  33.8     0     0  33.8     0  33.8     0
##  8 43693776…    61   757  33.8  33.8     0     0  33.8     0  33.8     0
##  9 43693776…    61   757  33.8  33.8     0     0  33.8     0  33.8     0
## 10 43693776…    61   757  33.8  33.8     0     0  33.8     0  33.8     0
## # ℹ 173 more rows
## # ℹ 43 more variables: pw8 <dbl>, pw9 <dbl>, pw10 <dbl>, pw11 <dbl>,
## #   pw12 <dbl>, pw13 <dbl>, pw14 <dbl>, pw15 <dbl>, pw16 <dbl>,
## #   pw17 <dbl>, pw18 <dbl>, pw19 <dbl>, pw20 <dbl>, pw21 <dbl>,
## #   pw22 <dbl>, pw23 <dbl>, pw24 <dbl>, pw25 <dbl>, pw26 <dbl>,
## #   pw27 <dbl>, pw28 <dbl>, pw29 <dbl>, pw30 <dbl>, pw31 <dbl>,
## #   pw32 <dbl>, pw33 <dbl>, pw34 <dbl>, pw35 <dbl>, pw36 <dbl>, …
…
