Chapter 14 AmericasBarometer Vignette | Exploring Complex Survey Data Analysis in R
…
With this new variable, we can now use survey_mean() to calculate the percentage of people in each country who are either very or somewhat worried about COVID. There are missing data, as indicated in the survey_count() output above, so we need to use na.rm = TRUE in the survey_mean() function to handle the missing values.

covid_worry_country_ests <- covid_worry_collapse %>%
  group_by(Country) %>%
  summarize(p = survey_mean(CovidWorry_bin == "WorriedHi",
                            na.rm = TRUE) * 100)

covid_worry_country_ests

## # A tibble: 22 × 3
##    Country                p  p_se
##    <fct>              <dbl> <dbl>
##  1 Argentina           65.8 1.08 
##  2 Bolivia             71.6 0.960
##  3 Brazil              83.5 0.962
##  4 Canada              48.9 1.34 
##  5 Chile               81.8 0.828
##  6 Colombia            67.9 1.12 
##  7 Costa Rica          72.6 0.952
##  8 Dominican Republic  50.1 1.13 
##  9 Ecuador             71.7 0.967
## 10 El Salvador         52.5 1.02 
## # ℹ 12 more rows
…
