D Exercise solutions | Exploring Complex Survey Data Analysis in R
…
FIGURE D.2: Residual plot of electric cost model with covariates TOTSQFT_EN, CDD65, and HDD65

Early voting expanded in 202038. Build a logistic model predicting early voting in 2020 (EarlyVote2020) using age (Age), education (Education), and party identification (PartyID). Include two-way interactions.

earlyvote_mod <- anes_des %>%
  filter(!is.na(EarlyVote2020)) %>%
  svyglm(
    design = .,
    formula = EarlyVote2020 ~ (Age + Education + PartyID) ^ 2 ,
    family = quasibinomial
  )

tidy(earlyvote_mod) %>% arrange(p.value)

## # A tibble: 46 × 5
##    term                             estimate std.error statistic p.value
##    <chr>                               <dbl>     <dbl>     <dbl>   <dbl>
##  1 EducationPost HS:PartyIDNot ver…     16.2      1.69      9.54  0.0108
##  2 EducationGraduate:PartyIDNot ve…     15.4      1.72      8.95  0.0123
##  3 EducationBachelor's:PartyIDNot …     15.8      1.93      8.18  0.0146
##  4 EducationGraduate:PartyIDIndepe…    -14.2      1.75     -8.12  0.0148
##  5 PartyIDIndependent-republican       -19.5      2.42     -8.09  0.0149
##  6 EducationHigh school:PartyIDNot…     15.9      2.02      7.88  0.0157
##  7 EducationBachelor's:PartyIDInde…     17.7      2.32      7.64  0.0167
##  8 EducationGraduate:PartyIDIndepe…     16.5      2.33      7.10  0.0193
##  9 EducationHigh school:PartyIDInd…     15.5      2.56      6.05  0.0262
## 10 EducationGraduate:PartyIDIndepe…    -14.8      2.47     -5.99  0.0268
## # ℹ 36 more rows
…
