A Importing survey data into R | Exploring Complex Survey Data Analysis Using R
…
Factors are integer vectors, though they may look like character strings. We can confirm by looking at the vector’s structure:

glimpse(factors)

##  Factor w/ 4 levels "strongly agree",..: 1 2 2 3 4

R’s factors differ from Stata, SPSS, or SAS labeled vectors. However, we can convert labeled variables into factors using the as_factor() function.

anes_dta %>%
  transmute(V200002 = as_factor(V200002))

## # A tibble: 7,453 × 1
##    V200002
##    <fct>  
##  1 3. Web 
##  2 3. Web 
##  3 3. Web 
##  4 3. Web 
##  5 3. Web 
##  6 3. Web 
##  7 3. Web 
##  8 3. Web 
##  9 3. Web 
## 10 3. Web 
## # ℹ 7,443 more rows
…
## Getting data from the 2022 1-year ACS Public Use Microdata Sample

## Warning: • You have not set a Census API key. Users without a key are limited to 500
## queries per day and may experience performance limitations.
## ℹ For best results, get a Census API key at
## http://api.census.gov/data/key_signup.html and then supply the key to the
## `census_api_key()` function to use it throughout your tidycensus session.
## This warning is displayed once per session.

durh_pums

## # A tibble: 2,724 × 90
##    SERIALNO      SPORDER  AGEP PUMA  ST    SEX   HISP  RAC1P  WGTP PWGTP
##    <chr>           <dbl> <dbl> <chr> <chr> <chr> <chr> <chr> <dbl> <dbl>
##  1 2022GQ0002044       1    54 01301 37    1     01    2         0    17
##  2 2022GQ0002319       1    20 01301 37    2     01    2         0    64
##  3 2022GQ0003518       1    22 01301 37    1     01    6         0    52
##  4 2022GQ0003930       1    62 01302 37    1     01    2         0    17
##  5 2022GQ0005753       1    19 01301 37    2     24    8         0    29
##  6 2022GQ0006554       1    22 01301 37    2     01    6         0    59
##  7 2022GQ0007092       1    70 01301 37    1     01    2         0    55
##  8 2022GQ0007502       1    36 01302 37    1     01    1         0    39
##  9 2022GQ0008767       1    74 01301 37    1     01    1         0    15
## 10 2022GQ0008956       1    22 01302 37    2     24    1         0    43
## # ℹ 2,714 more rows
## # ℹ 80 more variables: PWGTP1 <dbl>, PWGTP2 <dbl>, PWGTP3 <dbl>,
## #   PWGTP4 <dbl>, PWGTP5 <dbl>, PWGTP6 <dbl>, PWGTP7 <dbl>,
## #   PWGTP8 <dbl>, PWGTP9 <dbl>, PWGTP10 <dbl>, PWGTP11 <dbl>,
## #   PWGTP12 <dbl>, PWGTP13 <dbl>, PWGTP14 <dbl>, PWGTP15 <dbl>,
## #   PWGTP16 <dbl>, PWGTP17 <dbl>, PWGTP18 <dbl>, PWGTP19 <dbl>,
## #   PWGTP20 <dbl>, PWGTP21 <dbl>, PWGTP22 <dbl>, PWGTP23 <dbl>, …
…
