Chapter 3 Understanding survey data files | Tidy Survey Book
…
read_fwf(): Fixed-width files

read_table(): Whitespace-separated files

read_log(): Web log files

3.1.3 Loading Stata .dta files into R

Stata is a popular statistical software package for data manipulation, visualization, statistics, and automated reporting. Stata stores its data using the proprietary .dta format, a file type that can contain labels for the data’s variables and values.

The {haven} package imports a variety of proprietary data formats, including Stata’s .dta files, SAS’s .sas files, and SPSS’s .sav files. Once imported, we can analyze the resulting tibbles in R.

haven::read_dta("https://www.stata-press.com/data/r17/smho.dta")

## # A tibble: 120 × 10
##       id        hosptype exptotal  beds seencnt eoycnt
##    <dbl>       <dbl+lbl>    <dbl> <dbl>   <dbl>  <dbl>
##  1    14 1 [Psychiatric]       18   138    3083    308
##  2    19 1 [Psychiatric]        6    72    1557     15
##  3    30 1 [Psychiatric]       10    79    1822    191
##  4    32 1 [Psychiatric]        4    15    1201      0
##  5    44 1 [Psychiatric]        2    31    1346      0
##  6    47 1 [Psychiatric]       10   139    1739    126
##  7    52 1 [Psychiatric]       15   169    2614      0
##  8    54 1 [Psychiatric]       15    96    1137     82
##  9    58 1 [Psychiatric]       10    83    1783    164
## 10    62 1 [Psychiatric]       10   178    1956    305
## # … with 110 more rows, and 4 more variables:
## #   findirct <dbl>, wt <dbl>, stratum <dbl>, N_h <dbl>
…
