Chapter 5 Specifying sample designs in srvyr | Tidy Survey Book
…
5.4.3 An example

The survey package includes a two-stage cluster sample data, apiclus2, in which school districts were sampled and then a random sample of 5 schools was selected within each district. For districts with fewer than 5 schools, all schools were sampled. School districts have identifiers dnum and schools have identifiers of snum. The variable fpc1 indicates how many districts there were in California and fpc2 indicates how many schools were in a given district with at least 100 students. The data has a row for each school. In the data printed below, there are 757 school districts as indicated by fpc1 and there are 9 schools in district 731, one school in district 742, 2 schools in district 768, 6 schools in district 781, and 1 school in district 795 as indicated by fpc2.

apiclus2_slim <- 
  apiclus2 %>%
  as_tibble() %>%
  arrange(desc(dnum), snum) %>%
  select(cds, dnum, snum, fpc1, fpc2, pw)

apiclus2_slim

## # A tibble: 126 x 6
##    cds             dnum  snum  fpc1  fpc2    pw
##    <chr>          <int> <dbl> <dbl> <int> <dbl>
##  1 47704826050942   795  5552   757     1  18.9
##  2 07618126005169   781   530   757     6  22.7
##  3 07618126005177   781   531   757     6  22.7
##  4 07618126005185   781   532   757     6  22.7
##  5 07618126005193   781   533   757     6  22.7
##  6 07618126005243   781   535   757     6  22.7
##  7 19650786023337   768  2371   757     2  18.9
##  8 19650786023345   768  2372   757     2  18.9
##  9 54722076054423   742  5898   757     1  18.9
## 10 50712906053086   731  5781   757     9  34.1
## # ... with 116 more rows
…
