…
    ## count: now 202 rows and 4 columns, ungrouped

    ## group_by: 2 grouping variables (V200010d, V200010c)

    ## mutate (grouped): new variable 'Pct' (double) with 168 unique values and 0% NA

    ## filter (grouped): removed 101 rows (50%), 101 rows remaining

    ## # A tibble: 101 × 5
    ## # Groups:   V200010d, V200010c [101]
    ##    V200010d V200010c V200004                                                     n   Pct
    ##       <dbl>    <dbl> <dbl+lbl>                                               <int> <dbl>
    ##  1       32        1 3 [3. pre and post-election interviews (both) complete]    63 0.797
    ##  2       33        2 3 [3. pre and post-election interviews (both) complete]    67 0.798
    ##  3       45        1 3 [3. pre and post-election interviews (both) complete]    60 0.8  
    ##  4        8        1 3 [3. pre and post-election interviews (both) complete]    72 0.828
    ##  5       38        2 3 [3. pre and post-election interviews (both) complete]    71 0.835
    ##  6       49        2 3 [3. pre and post-election interviews (both) complete]    67 0.838
    ##  7       36        1 3 [3. pre and post-election interviews (both) complete]    68 0.85 
    ##  8       47        2 3 [3. pre and post-election interviews (both) complete]    69 0.852
    ##  9       50        2 3 [3. pre and post-election interviews (both) complete]    69 0.852
    ## 10        4        1 3 [3. pre and post-election interviews (both) complete]    76 0.854
    ## # ℹ 91 more rows
…
